<svg width="17" height="12" viewBox="0 0 17 12" fill="none" xmlns="http://www.w3.org/2000/svg">
<path d="M0 6H1.5" stroke="#FAC019" stroke-width="1.5"/>
<path d="M3.5 6H5" stroke="#FAC019" stroke-width="1.5"/>
<!-- <path id="apple" d="M16.5303 6.53033C16.8232 6.23744 16.8232 5.76256 16.5303 5.46967L11.7574 0.696699C11.4645 0.403806 10.9896 0.403806 10.6967 0.696699C10.4038 0.989592 10.4038 1.46447 10.6967 1.75736L14.9393 6L10.6967 10.2426C10.4038 10.5355 10.4038 11.0104 10.6967 11.3033C10.9896 11.5962 11.4645 11.5962 11.7574 11.3033L16.5303 6.53033ZM7 6.75H16V5.25H7V6.75Z" fill="#FAC019"/> -->
<path id="ball" d="M16.5303 6.53033C16.8232 6.23744 16.8232 5.76256 16.5303 5.46967L11.7574 0.6967C11.4645 0.403807 10.9896 0.403807 10.6967 0.6967C10.4038 0.989593 10.4038 1.46447 10.6967 1.75736L14.9393 6L10.6967 10.2426C10.4038 10.5355 10.4038 11.0104 10.6967 11.3033C10.9896 11.5962 11.4645 11.5962 11.7574 11.3033L16.5303 6.53033ZM-6.55671e-08 6.75L16 6.75L16 5.25L6.55671e-08 5.25L-6.55671e-08 6.75Z" fill="#FAC019"/>
</svg>

