    <svg
    width="33"
    height="24"
    viewBox="0 0 33 24"
    fill="none"
    xmlns="http://www.w3.org/2000/svg"
  >
    <path
      d="M12 2H31.4521M2.46238 12H31.4521M2.46238 22H31.4521M7.24631 2H7.64752M2.45215 2H3.00077"
      stroke="red"
      stroke-width="3"
      stroke-linecap="round"
    />
  </svg>