<svg width="1920" height="1080" viewBox="0 0 1920 1080" fill="none" xmlns="http://www.w3.org/2000/svg">
<rect width="1921" height="1080" fill="#1A1D1B"/>
<path d="M1080.55 527.462H267.938C208.86 527.462 179.282 532.831 174.838 553.319H157.138V466H174.838C179.282 486.488 208.783 491.857 267.938 491.857H1080.55C1138.17 491.857 1167.75 486.488 1172.11 466H1191.35V553.319H1172.11C1167.67 532.831 1138.17 527.462 1080.55 527.462Z" fill="#1A1D1B"/>
<path d="M1080.55 525.962H267.938C238.397 525.962 216.065 527.3 200.53 531.254C185.556 535.066 176.449 541.439 173.659 551.819H158.638V467.5H173.659C176.448 477.879 185.534 484.253 200.501 488.065C216.027 492.019 238.359 493.357 267.938 493.357H1080.55C1109.36 493.357 1131.33 492.019 1146.67 488.064C1161.46 484.252 1170.54 477.878 1173.3 467.5H1189.85V551.819H1173.29C1170.51 541.444 1161.43 535.068 1146.65 531.255C1131.31 527.3 1109.36 525.962 1080.55 525.962Z" stroke="#2C2C2C" stroke-opacity="0.6" stroke-width="3"/>
<path d="M905.458 208.426C821.784 208.426 732.592 230.679 673.054 272.643C613.517 230.679 524.325 208.426 440.651 208.426C251.77 208.426 110.32 337.072 110.32 517.219C110.32 697.365 263.8 826.011 452.681 826.011C536.355 826.011 613.44 807.149 672.978 762.642C732.515 807.149 809.6 826.011 893.275 826.011C1082.16 826.011 1235.64 698.213 1235.64 517.219C1235.64 336.224 1094.26 208.426 905.458 208.426ZM893.351 811.458C798.183 811.458 723.78 787.792 682.862 698.849L673.054 674.9C624.857 772.956 556.048 811.458 452.757 811.458C308.549 811.458 175.451 703.37 175.451 517.219C175.451 331.067 296.366 223.827 440.651 223.827C543.941 223.827 634.205 272.713 662.097 379.954L672.824 415.63V417.043L673.054 416.336L673.284 417.043V415.63L684.012 379.954C711.903 272.713 802.168 223.827 905.458 223.827C1049.67 223.827 1170.66 331.915 1170.66 517.219C1170.66 702.523 1037.56 811.458 893.351 811.458Z" fill="#1A1D1B"/>
<path d="M672.19 273.869L673.054 274.478L673.919 273.869C733.133 232.133 821.994 209.926 905.458 209.926C1093.54 209.926 1234.14 337.159 1234.14 517.219C1234.14 697.211 1081.51 824.511 893.275 824.511C809.808 824.511 733.074 805.694 673.876 761.441L672.978 760.769L672.08 761.441C612.881 805.694 536.148 824.511 452.681 824.511C264.446 824.511 111.82 696.366 111.82 517.219C111.82 338.005 252.489 209.926 440.651 209.926C524.115 209.926 612.976 232.133 672.19 273.869ZM681.474 699.417L681.486 699.447L681.5 699.476C702.096 744.246 731.169 772.666 767.116 789.861C803.016 807.033 845.664 812.958 893.351 812.958C1038.36 812.958 1172.16 703.376 1172.16 517.219C1172.16 424.231 1141.79 350.494 1093.22 299.994C1044.64 249.497 977.945 222.327 905.458 222.327C801.696 222.327 710.686 271.489 682.567 379.548L673.054 411.185L663.542 379.549C635.424 271.489 544.413 222.327 440.651 222.327C368.129 222.327 301.43 249.282 252.864 299.675C204.295 350.07 173.951 423.809 173.951 517.219C173.951 704.227 307.749 812.958 452.757 812.958C504.588 812.958 547.904 803.298 584.343 781.233C620.047 759.614 649.014 726.167 672.923 678.537L681.474 699.417Z" stroke="#2C2C2C" stroke-opacity="0.6" stroke-width="3"/>
<path d="M959.172 720.537C935.112 846.64 828.449 901.532 691.904 899.342C604.704 897.152 482.027 870.801 410.843 822.55V677.796H424.635C459.04 814.92 582.943 877.371 691.904 879.631C784.85 881.821 866.226 845.651 885.765 756.778C933.962 526.473 399.426 551.694 460.189 259.926C480.878 160.104 565.702 108.532 683.858 108.532C767.609 108.532 844.464 137.073 917.871 190.764V327.888H905.228C869.674 190.764 792.819 128.313 683.858 128.313C604.704 128.313 530.148 167.804 520.953 250.036C495.743 466.071 1006.14 475.961 959.095 720.537H959.172Z" fill="#1A1D1B"/>
<path d="M957.279 722.037H957.352C945.127 783.757 912.864 828.066 866.925 856.777C820.503 885.789 760.015 898.933 691.932 897.842C648.453 896.749 596.1 889.631 545.739 876.765C495.671 863.974 447.675 845.528 412.343 821.753V679.296H423.468C458.479 816.465 582.741 878.865 691.868 881.131C738.527 882.23 782.402 873.707 817.112 853.652C851.864 833.574 877.365 801.968 887.23 757.1L887.232 757.093L887.233 757.086C893.319 728.006 890.215 702.885 880.192 680.657C870.18 658.455 853.309 639.234 832.005 621.853C794.472 591.23 742.893 566.109 690.134 540.413C683.075 536.975 675.996 533.527 668.926 530.054C608.893 500.565 549.514 469.268 508.908 427.22C468.4 385.274 446.579 332.637 461.658 260.232L461.658 260.231C471.924 210.7 498.075 173.197 536.298 148.049C574.55 122.882 624.985 110.032 683.858 110.032C767.004 110.032 843.36 138.279 916.371 191.526V326.388H906.387C888.545 258.213 860.427 208.383 823.06 175.552C785.467 142.522 738.643 126.813 683.858 126.813C604.325 126.813 528.781 166.549 519.463 249.865C513.077 304.595 540.682 346.175 584.452 381.466C624.679 413.9 678.806 441.221 733.322 468.739C738.06 471.131 742.801 473.524 747.536 475.922C806.854 505.964 865.252 536.789 905.907 575.31C946.482 613.755 969.263 659.741 957.622 720.254L957.279 722.037Z" stroke="#2C2C2C" stroke-opacity="0.6" stroke-width="3"/>
<mask id="path-8-inside-1_0_1" fill="white">
<path d="M675.276 1022.19C397.817 1022.19 306.786 816.686 306.786 670.449V221.707C306.786 172.537 291.844 147.317 236.674 142.301V127.183H405.25V142.301C350.079 147.317 335.138 172.537 335.138 221.707V670.449C335.138 807.855 415.671 993.159 673.744 993.159"/>
</mask>
<path d="M675.276 1022.19C397.817 1022.19 306.786 816.686 306.786 670.449V221.707C306.786 172.537 291.844 147.317 236.674 142.301V127.183H405.25V142.301C350.079 147.317 335.138 172.537 335.138 221.707V670.449C335.138 807.855 415.671 993.159 673.744 993.159" fill="#1A1D1B"/>
<path d="M236.674 142.301H233.674V145.041L236.403 145.289L236.674 142.301ZM236.674 127.183V124.183H233.674V127.183H236.674ZM405.25 127.183H408.25V124.183H405.25V127.183ZM405.25 142.301L405.521 145.289L408.25 145.041V142.301H405.25ZM675.276 1019.19C537.375 1019.19 446.127 968.167 389.299 899.252C332.385 830.234 309.786 743.014 309.786 670.449H303.786C303.786 744.121 326.703 832.774 384.669 903.069C442.721 973.468 535.719 1025.19 675.276 1025.19V1019.19ZM309.786 670.449V221.707H303.786V670.449H309.786ZM309.786 221.707C309.786 196.938 306.051 177.459 294.747 163.554C283.38 149.571 264.892 141.854 236.946 139.313L236.403 145.289C263.627 147.764 280.195 155.165 290.091 167.339C300.051 179.59 303.786 197.306 303.786 221.707H309.786ZM239.674 142.301V127.183H233.674V142.301H239.674ZM236.674 130.183H405.25V124.183H236.674V130.183ZM402.25 127.183V142.301H408.25V127.183H402.25ZM404.978 139.313C377.032 141.854 358.544 149.571 347.177 163.554C335.873 177.459 332.138 196.938 332.138 221.707H338.138C338.138 197.306 341.873 179.59 351.833 167.339C361.729 155.165 378.297 147.764 405.521 145.289L404.978 139.313ZM332.138 221.707V670.449H338.138V221.707H332.138ZM332.138 670.449C332.138 739.673 352.413 821.08 405.349 885.241C458.371 949.505 543.909 996.159 673.744 996.159V990.159C545.505 990.159 461.74 944.161 409.977 881.422C358.128 818.579 338.138 738.631 338.138 670.449H332.138Z" fill="#2C2C2C" fill-opacity="0.6" mask="url(#path-8-inside-1_0_1)"/>
<mask id="path-10-inside-2_0_1" fill="white">
<path d="M677.728 993.159C935.802 993.159 1016.33 807.855 1016.33 670.449V221.707C1016.33 172.537 1001.39 147.317 946.223 142.301V127.183H1114.8V142.301C1059.63 147.317 1044.69 172.537 1044.69 221.707V670.449C1044.69 816.686 953.655 1022.19 676.196 1022.19"/>
</mask>
<path d="M677.728 993.159C935.802 993.159 1016.33 807.855 1016.33 670.449V221.707C1016.33 172.537 1001.39 147.317 946.223 142.301V127.183H1114.8V142.301C1059.63 147.317 1044.69 172.537 1044.69 221.707V670.449C1044.69 816.686 953.655 1022.19 676.196 1022.19" fill="#1A1D1B"/>
<path d="M946.223 142.301H943.223V145.041L945.951 145.289L946.223 142.301ZM946.223 127.183V124.183H943.223V127.183H946.223ZM1114.8 127.183H1117.8V124.183H1114.8V127.183ZM1114.8 142.301L1115.07 145.289L1117.8 145.041V142.301H1114.8ZM677.728 996.159C807.563 996.159 893.101 949.505 946.123 885.241C999.059 821.08 1019.33 739.673 1019.33 670.449H1013.33C1013.33 738.631 993.344 818.579 941.495 881.422C889.732 944.161 805.967 990.159 677.728 990.159V996.159ZM1019.33 670.449V221.707H1013.33V670.449H1019.33ZM1019.33 221.707C1019.33 196.938 1015.6 177.459 1004.3 163.554C992.928 149.571 974.44 141.854 946.494 139.313L945.951 145.289C973.175 147.764 989.743 155.165 999.639 167.339C1009.6 179.59 1013.33 197.306 1013.33 221.707H1019.33ZM949.223 142.301V127.183H943.223V142.301H949.223ZM946.223 130.183H1114.8V124.183H946.223V130.183ZM1111.8 127.183V142.301H1117.8V127.183H1111.8ZM1114.53 139.313C1086.58 141.854 1068.09 149.571 1056.73 163.554C1045.42 177.459 1041.69 196.938 1041.69 221.707H1047.69C1047.69 197.306 1051.42 179.59 1061.38 167.339C1071.28 155.165 1087.85 147.764 1115.07 145.289L1114.53 139.313ZM1041.69 221.707V670.449H1047.69V221.707H1041.69ZM1041.69 670.449C1041.69 743.014 1019.09 830.234 962.173 899.252C905.345 968.167 814.098 1019.19 676.196 1019.19V1025.19C815.753 1025.19 908.751 973.468 966.803 903.069C1024.77 832.774 1047.69 744.121 1047.69 670.449H1041.69Z" fill="#2C2C2C" fill-opacity="0.6" mask="url(#path-10-inside-2_0_1)"/>
<path d="M933.426 501.536C933.426 644.24 816.649 744.981 673.054 744.981C529.459 744.981 413.372 644.24 413.372 501.536C413.372 358.831 530.148 258.09 673.054 258.09C815.96 258.09 933.426 359.538 933.426 501.536ZM883.849 501.536C883.849 355.44 782.628 270.241 672.977 270.241C563.327 270.241 462.105 355.44 462.105 501.536C462.105 647.631 563.327 733.466 672.977 733.466C782.628 733.466 883.849 648.267 883.849 501.536Z" fill="#1A1D1B"/>
<path d="M931.926 501.536C931.926 643.286 815.953 743.481 673.054 743.481C530.16 743.481 414.872 643.291 414.872 501.536C414.872 359.783 530.847 259.59 673.054 259.59C815.263 259.59 931.926 360.492 931.926 501.536ZM885.349 501.536C885.349 354.632 783.476 268.741 672.977 268.741C562.479 268.741 460.605 354.632 460.605 501.536C460.605 648.434 562.473 734.966 672.977 734.966C783.479 734.966 885.349 649.073 885.349 501.536Z" stroke="#2C2C2C" stroke-opacity="0.6" stroke-width="3"/>
<path d="M690.908 258.867V259.079C793.433 269.04 883.85 363.493 883.85 501.535C883.85 639.577 793.433 734.101 690.908 743.992V744.204C826.151 736.15 933.427 638.235 933.427 501.535C933.427 364.836 826.228 266.921 690.908 258.867Z" fill="#1A1D1B"/>
<path d="M931.927 501.535C931.927 624.398 844.71 715.806 728.423 738.032C815.396 711.464 885.35 623.215 885.35 501.535C885.35 379.759 815.286 291.522 728.218 264.996C844.661 287.148 931.927 378.594 931.927 501.535Z" stroke="#2C2C2C" stroke-opacity="0.6" stroke-width="3"/>
<path d="M686.847 263.671V758.757C686.847 794.786 690.678 812.801 705.237 815.485V826.294H643.094V815.485C657.653 812.801 661.484 794.786 661.484 758.757V263.671C661.484 228.56 657.653 210.545 643.094 207.861V196.133H705.237V207.861C690.678 210.545 686.847 228.56 686.847 263.671Z" fill="#1A1D1B"/>
<path d="M685.347 263.671V758.757C685.347 776.774 686.299 790.481 689.144 800.053C690.572 804.855 692.504 808.716 695.115 811.568C697.471 814.143 700.332 815.843 703.737 816.694V824.794H644.594V816.694C647.998 815.843 650.859 814.143 653.216 811.568C655.826 808.716 657.758 804.855 659.186 800.053C662.032 790.481 662.984 776.774 662.984 758.757V263.671C662.984 246.11 662.032 232.632 659.185 223.173C657.756 218.427 655.823 214.597 653.213 211.76C650.858 209.201 647.997 207.502 644.594 206.651V197.633H703.737V206.651C700.333 207.502 697.473 209.201 695.118 211.76C692.507 214.597 690.574 218.427 689.146 223.173C686.299 232.632 685.347 246.11 685.347 263.671Z" stroke="#2C2C2C" stroke-opacity="0.6" stroke-width="3"/>
<mask id="path-18-inside-3_0_1" fill="white">
<path d="M815.155 610.843C681.368 515.754 416.628 469.976 460.381 260.016C481.07 160.194 565.894 108.622 684.05 108.622C767.801 108.622 844.656 137.163 918.063 190.854V327.978H905.42C869.866 190.854 793.011 128.403 684.05 128.403C604.896 128.403 530.34 167.894 521.145 250.126C504.378 393.769 724.443 446.292 859.945 537.283C860.059 537.36 860.181 537.513 860.287 537.513"/>
</mask>
<path d="M815.155 610.843C681.368 515.754 416.628 469.976 460.381 260.016C481.07 160.194 565.894 108.622 684.05 108.622C767.801 108.622 844.656 137.163 918.063 190.854V327.978H905.42C869.866 190.854 793.011 128.403 684.05 128.403C604.896 128.403 530.34 167.894 521.145 250.126C504.378 393.769 724.443 446.292 859.945 537.283C860.059 537.36 860.181 537.513 860.287 537.513" fill="#1A1D1B"/>
<path d="M460.381 260.016L463.318 260.628L463.319 260.625L460.381 260.016ZM918.063 190.854H921.063V189.331L919.834 188.433L918.063 190.854ZM918.063 327.978V330.978H921.063V327.978H918.063ZM905.42 327.978L902.516 328.731L903.098 330.978H905.42V327.978ZM521.145 250.126L524.125 250.474L524.125 250.466L524.126 250.459L521.145 250.126ZM859.945 537.283L858.273 539.774L859.945 537.283ZM816.893 608.398C783.211 584.459 741.354 563.666 698.442 542.74C655.44 521.77 611.349 500.653 572.808 475.98C534.27 451.308 501.543 423.238 481.129 388.517C460.772 353.895 452.523 312.433 463.318 260.628L457.444 259.404C446.363 312.58 454.799 355.575 475.956 391.558C497.056 427.443 530.672 456.129 569.573 481.033C608.471 505.935 652.916 527.215 695.813 548.133C738.801 569.096 780.205 589.683 813.417 613.289L816.893 608.398ZM463.319 260.625C473.505 211.475 499.431 174.316 537.314 149.392C575.257 124.428 625.382 111.622 684.05 111.622V105.622C624.561 105.622 573.196 118.602 534.016 144.38C494.776 170.197 467.946 208.735 457.444 259.407L463.319 260.625ZM684.05 111.622C767.057 111.622 843.305 139.892 916.292 193.275L919.834 188.433C846.007 134.435 768.545 105.622 684.05 105.622V111.622ZM915.063 190.854V327.978H921.063V190.854H915.063ZM918.063 324.978H905.42V330.978H918.063V324.978ZM908.324 327.225C890.448 258.284 862.107 207.784 824.242 174.515C786.333 141.208 739.14 125.403 684.05 125.403V131.403C737.921 131.403 783.635 146.824 820.282 179.023C856.974 211.261 884.837 260.548 902.516 328.731L908.324 327.225ZM684.05 125.403C604.135 125.403 527.602 165.387 518.163 249.793L524.126 250.459C533.078 170.402 605.657 131.403 684.05 131.403V125.403ZM518.165 249.778C509.553 323.558 561.963 373.513 631.886 416.012C666.94 437.318 706.759 456.967 746.13 476.904C785.563 496.873 824.569 517.141 858.273 539.774L861.618 534.792C827.57 511.929 788.255 491.511 748.84 471.551C709.363 451.56 669.807 432.039 635.002 410.885C565.209 368.465 515.97 320.337 524.125 250.474L518.165 249.778ZM858.273 539.774C858.2 539.725 858.147 539.684 858.119 539.661C858.104 539.649 858.092 539.639 858.085 539.633C858.077 539.627 858.073 539.623 858.072 539.623C858.031 539.588 858.151 539.692 858.209 539.74C858.286 539.804 858.482 539.963 858.752 540.113C859.009 540.255 859.552 540.513 860.287 540.513V534.513C860.969 534.513 861.458 534.752 861.658 534.863C861.872 534.982 862.01 535.098 862.029 535.113C862.03 535.114 862.091 535.165 861.992 535.08C861.946 535.041 861.804 534.918 861.618 534.792L858.273 539.774Z" fill="#2C2C2C" fill-opacity="0.6" mask="url(#path-18-inside-3_0_1)"/>
</svg>
